#514 -

owner = F11
controller = F11
add_core = F11
add_core = F16
culture = ourdi
religion = regent_court


base_tax = 3
base_production = 3
base_manpower = 3

trade_goods = grain

capital = ""

is_city = yes











add_nationalism = 10